…
``` r
dim(datasaurus_dozen)
```

    ## [1] 1846    3

1846 rows, and 3 columns

What are the variables included in the data frame?

``` r
datasaurus_dozen
```

    ## # A tibble: 1,846 × 3
    ##    dataset     x     y
    ##    <chr>   <dbl> <dbl>
    ##  1 dino     55.4  97.2
    ##  2 dino     51.5  96.0
    ##  3 dino     46.2  94.5
    ##  4 dino     42.8  91.4
    ##  5 dino     40.8  88.3
    ##  6 dino     38.7  84.9
    ##  7 dino     35.6  79.9
    ##  8 dino     33.1  77.6
    ##  9 dino     29.0  74.5
    ## 10 dino     26.2  71.4
    ## # … with 1,836 more rows
…
