…
------------------------------------------------------------------------

## Question 1: What specialties do we have?

We can use `count()` from `dplyr` to figure out how many different
categories do we have? Are these catagories related? overlapping? evenly
distributed?

``` r
mtsamples %>%
  count(medical_specialty, sort = TRUE)
```

    ## # A tibble: 40 × 2
    ##    medical_specialty                    n
    ##    <chr>                            <int>
    ##  1 " Surgery"                        1103
    ##  2 " Consult - History and Phy."      516
    ##  3 " Cardiovascular / Pulmonary"      372
    ##  4 " Orthopedic"                      355
    ##  5 " Radiology"                       273
    ##  6 " General Medicine"                259
    ##  7 " Gastroenterology"                230
    ##  8 " Neurology"                       223
    ##  9 " SOAP / Chart / Progress Notes"   166
    ## 10 " Obstetrics / Gynecology"         160
    ## # … with 30 more rows

``` r
mtsamples %>%
  count(medical_specialty) %>%
  unique()
```

    ## # A tibble: 40 × 2
    ##    medical_specialty                 n
    ##    <chr>                         <int>
    ##  1 " Allergy / Immunology"           7
    ##  2 " Autopsy"                        8
    ##  3 " Bariatrics"                    18
    ##  4 " Cardiovascular / Pulmonary"   372
    ##  5 " Chiropractic"                  14
    ##  6 " Consult - History and Phy."   516
    ##  7 " Cosmetic / Plastic Surgery"    27
    ##  8 " Dentistry"                     27
    ##  9 " Dermatology"                   29
    ## 10 " Diets and Nutritions"          10
    ## # … with 30 more rows
…
## Question 2

-   Tokenize the the words in the `transcription` column
-   Count the number of times each token appears
-   Visualize the top 20 most frequent words

Explain what we see from this result. Does it makes sense? What insights
(if any) do we get?

``` r
mtsamples %>%
  unnest_tokens(token, transcription)
```

    ## # A tibble: 2,403,563 × 6
    ##        X description                               medic…¹ sampl…² keywo…³ token
    ##    <int> <chr>                                     <chr>   <chr>   <chr>   <chr>
    ##  1     0 " A 23-year-old white female presents wi… " Alle… " Alle… allerg… subj…
    ##  2     0 " A 23-year-old white female presents wi… " Alle… " Alle… allerg… this 
    ##  3     0 " A 23-year-old white female presents wi… " Alle… " Alle… allerg… 23   
    ##  4     0 " A 23-year-old white female presents wi… " Alle… " Alle… allerg… year 
    ##  5     0 " A 23-year-old white female presents wi… " Alle… " Alle… allerg… old  
    ##  6     0 " A 23-year-old white female presents wi… " Alle… " Alle… allerg… white
    ##  7     0 " A 23-year-old white female presents wi… " Alle… " Alle… allerg… fema…
    ##  8     0 " A 23-year-old white female presents wi… " Alle… " Alle… allerg… pres…
    ##  9     0 " A 23-year-old white female presents wi… " Alle… " Alle… allerg… with 
    ## 10     0 " A 23-year-old white female presents wi… " Alle… " Alle… allerg… comp…
    ## # … with 2,403,553 more rows, and abbreviated variable names
    ## #   ¹​medical_specialty, ²​sample_name, ³​keywords
…
