…
``` r
df_all %>%
  filter(PM2.5Concentration < 0) %>%
  group_by(Site.Name, year) %>%
  summarise(negative_readings = n()) %>%
  arrange(desc(negative_readings))
```

    ## `summarise()` has grouped output by 'Site.Name'. You can override using the
    ## `.groups` argument.

    ## # A tibble: 41 × 3
    ## # Groups:   Site.Name [41]
    ##    Site.Name                            year  negative_readings
    ##    <chr>                                <chr>             <int>
    ##  1 Tahoe City-Fairway Drive             2019                153
    ##  2 Lake Elsinore                        2019                 30
    ##  3 Lompoc H Street                      2019                 12
    ##  4 Arroyo Grande CDF                    2019                  9
    ##  5 Piru - Pacific                       2019                  5
    ##  6 Ridgecrest-Ward                      2019                  5
    ##  7 Salinas 3                            2019                  5
    ##  8 Lebec                                2019                  4
    ##  9 Red Bluff-Walnut St. District Office 2019                  4
    ## 10 Table Mountain Air Monitoring Site   2019                  4
    ## # … with 31 more rows
…
